[
    { 
    "id":1,
    "protocol":"http",
    "myIP":"localhost",
    "port":"7000",
    "app":"",
    "baseurl":"http://103.192.67.20:8080/common.mobileapp.api-0.0.1/querydata/login/api?queryid=18&userid=punya&imei='12345'&password=12345"
    
}

]